dacol: utilities to modify column vector within dataframe • dacol
…
Example

This shows how to use dacol:

library(dacol)
library(dplyr)

max = 30
dta1 = tibble(x1 = seq(-1.2*max, 1.2*max, length.out = 200),
              x2 = seq(0, max, length.out = 200),
              x3 = sample(200))

dta1
#> # A tibble: 200 x 3
#>       x1    x2    x3
#>    <dbl> <dbl> <int>
#>  1 -36   0       178
#>  2 -35.6 0.151   170
#>  3 -35.3 0.302    34
#>  4 -34.9 0.452     1
#>  5 -34.6 0.603    97
#>  6 -34.2 0.754   109
#>  7 -33.8 0.905   158
#>  8 -33.5 1.06     57
#>  9 -33.1 1.21     89
#> 10 -32.7 1.36     81
#> # ... with 190 more rows
…
    # Band segmentation
    y_dec_band1  = dc_decile_band(x3),
    y_dec_band2  = dc_decile_band(x3, c(seq(0, 0.9, 0.1))),
    y_dec_ptile1 = dc_decile_ptile(x3),
    y_dec_ptile2 = dc_decile_ptile(x3, c(seq(0, 0.9, 0.1))),

    # Rank percentile
    y_ranked1 = dc_rank_ptile(x3),
    y_ranked2 = dc_rank_ptile(x3, c(seq(1, 100, 1)))
  )
#> Warning in if (is.na(n)) n = max(dplyr::n_distinct(x), 10000): the condition has
#> length > 1 and only the first element will be used

dta1
#> # A tibble: 200 x 20
#>       x1    x2    x3 y_cosine y_logistic y_zcore y_dist_canb y_dist_cos
#>    <dbl> <dbl> <int>    <dbl>      <dbl>   <dbl>       <dbl>      <dbl>
#>  1 -36   0       178        0     0        -1.72    0             0.498
#>  2 -35.6 0.151   170        0     0.0251   -1.70    0.000886      0.498
#>  3 -35.3 0.302    34        0     0.0502   -1.68    0.00879       0.498
#>  4 -34.9 0.452     1        0     0.0752   -1.67    0.311         0.498
#>  5 -34.6 0.603    97        0     0.100    -1.65    0.00618       0.498
#>  6 -34.2 0.754   109        0     0.125    -1.63    0.00687       0.498
#>  7 -33.8 0.905   158        0     0.150    -1.62    0.00569       0.498
#>  8 -33.5 1.06     57        0     0.174    -1.60    0.0182        0.498
#>  9 -33.1 1.21     89        0     0.198    -1.58    0.0134        0.498
#> 10 -32.7 1.36     81        0     0.222    -1.56    0.0165        0.498
#> # ... with 190 more rows, and 12 more variables: y_dist_euc <dbl>,
#> #   y_dist_pear <dbl>, y_trim <dbl>, y_norm <dbl>, y_mode <int>, y_ceil <dbl>,
#> #   y_dec_band1 <int>, y_dec_band2 <int>, y_dec_ptile1 <dbl>,
#> #   y_dec_ptile2 <dbl>, y_ranked1 <dbl>, y_ranked2 <dbl>
…
